<?xml version="1.0" encoding="UTF-8"?>
<!DOCTYPE svg PUBLIC "-//W3C//DTD SVG 1.0//EN" "http://www.w3.org/TR/2001/REC-SVG-20010904/DTD/svg10.dtd">
<!-- Creator: CorelDRAW X7 -->
<svg xmlns="http://www.w3.org/2000/svg" xml:space="preserve" width="158.75mm" height="317.501mm" version="1.0" shape-rendering="geometricPrecision" text-rendering="geometricPrecision" image-rendering="optimizeQuality" fill-rule="evenodd" clip-rule="evenodd"
viewBox="0 0 19505 39010"
 xmlns:xlink="http://www.w3.org/1999/xlink">
 <g id="Layer_x0020_1">
  <metadata id="CorelCorpID_0Corel-Layer"/>
  <g id="_1740569520832">
   <polygon fill="#FEFEFE" points="0,0 19505,0 19505,39010 0,39010 "/>
   <g>
    <path fill="#E8EAE9" d="M11359 21774l5124 0 0 -2939 -5124 0 0 2939zm5156 32l-5188 0 0 -3003 5188 0 0 3003z"/>
    <polygon fill="#F7F7F7" points="15445,20505 12021,20505 12021,20404 15445,20404 "/>
    <polygon fill="#F7F7F7" points="15680,20888 12021,20888 12021,20778 15680,20778 "/>
    <polygon fill="#F7F7F7" points="15680,21267 12021,21267 12021,21157 15680,21157 "/>
    <polygon fill="#F7F7F7" points="13218,20121 12021,20121 12021,19861 13218,19861 "/>
    <polygon fill="#E8EAE9" points="16499,19297 11343,19297 11343,18819 16499,18819 "/>
    <path fill="#FEFEFE" d="M16102 19226c-7,-7 60,-87 148,-179 89,-93 166,-163 173,-156 6,6 -60,86 -149,178 -88,93 -165,163 -172,157z"/>
    <path fill="#FEFEFE" d="M16423 19226c-7,6 -84,-64 -173,-157 -88,-92 -155,-172 -148,-178 7,-7 84,63 172,156 89,92 155,172 149,179z"/>
    <polygon fill="#EEEFEE" points="10131,15845 4975,15845 4975,12874 10131,12874 "/>
    <polygon fill="#F7F7F7" points="9076,14559 5653,14559 5653,14459 9076,14459 "/>
    <polygon fill="#F7F7F7" points="9312,14943 5653,14943 5653,14833 9312,14833 "/>
    <polygon fill="#F7F7F7" points="9312,15321 5653,15321 5653,15212 9312,15212 "/>
    <polygon fill="#F7F7F7" points="6850,14176 5653,14176 5653,13915 6850,13915 "/>
    <polygon fill="#E8EAE9" points="10131,13352 4975,13352 4975,12874 10131,12874 "/>
    <path fill="#FEFEFE" d="M9716 13278c-6,-6 60,-86 149,-179 88,-92 165,-162 172,-156 6,6 -60,86 -149,179 -88,93 -165,162 -172,156z"/>
    <path fill="#FEFEFE" d="M10037 13278c-7,6 -84,-63 -172,-156 -89,-93 -155,-173 -149,-179 7,-6 84,64 172,156 89,93 155,173 149,179z"/>
    <path fill="#E8EAE9" d="M3022 18361l5124 0 0 -2939 -5124 0 0 2939zm5156 32l-5187 0 0 -3003 5187 0 0 3003z"/>
    <polygon fill="#F7F7F7" points="7108,17092 3685,17092 3685,16991 7108,16991 "/>
    <polygon fill="#F7F7F7" points="7344,17475 3685,17475 3685,17365 7344,17365 "/>
    <polygon fill="#F7F7F7" points="7344,17854 3685,17854 3685,17744 7344,17744 "/>
    <polygon fill="#F7F7F7" points="4881,16708 3685,16708 3685,16448 4881,16448 "/>
    <polygon fill="#E8EAE9" points="8162,15884 3007,15884 3007,15406 8162,15406 "/>
    <polygon fill="#EEEFEE" points="14165,24531 8077,24531 8077,19081 14165,19081 "/>
    <polygon fill="#F7F7F7" points="8383,22318 3614,22318 3614,17364 8383,17364 "/>
    <polygon fill="#E8EAE9" points="8383,17904 3614,17904 3614,17364 8383,17364 "/>
    <path fill="#FEFEFE" d="M4008 17628c0,58 -45,105 -100,105 -55,0 -100,-47 -100,-105 0,-57 45,-104 100,-104 55,0 100,47 100,104z"/>
    <path fill="#FEFEFE" d="M4414 17628c0,58 -45,105 -100,105 -55,0 -100,-47 -100,-105 0,-57 45,-104 100,-104 55,0 100,47 100,104z"/>
    <path fill="#FEFEFE" d="M4820 17628c0,58 -44,105 -100,105 -55,0 -100,-47 -100,-105 0,-57 45,-104 100,-104 56,0 100,47 100,104z"/>
    <polygon fill="#F7F7F7" points="15834,20025 9746,20025 9746,13958 15834,13958 "/>
    <polygon fill="#E8EAE9" points="15834,14668 9746,14668 9746,13958 15834,13958 "/>
    <path fill="#FEFEFE" d="M10265 14306c0,76 -59,137 -132,137 -73,0 -132,-61 -132,-137 0,-77 59,-138 132,-138 73,0 132,61 132,138z"/>
    <path fill="#FEFEFE" d="M10761 14212c53,54 55,140 4,191 -52,51 -137,50 -191,-4 -54,-54 -56,-139 -4,-191 51,-51 137,-49 191,4z"/>
    <path fill="#FEFEFE" d="M11334 14306c0,76 -59,137 -132,137 -73,0 -132,-61 -132,-137 0,-77 59,-138 132,-138 73,0 132,61 132,138z"/>
    <path fill="#A8D29F" d="M12377 22265c-489,-342 -600,-976 -581,-1546 3,-95 -7,-195 38,-279 45,-83 151,-140 236,-100 71,33 102,115 141,183 53,91 131,165 223,213 61,32 136,51 196,18 82,-45 92,-159 91,-253 -1,-177 -2,-353 -3,-530 -1,-94 -1,-191 28,-281 30,-89 95,-173 185,-198 90,-25 201,27 220,119 8,39 0,79 3,118 2,39 21,83 58,94 38,11 76,-16 104,-44 98,-95 164,-218 226,-341 62,-122 122,-247 211,-352 88,-104 211,-187 346,-194 136,-8 280,76 315,209 34,133 -44,269 -129,377 -125,160 -274,302 -439,419 -30,21 -63,44 -74,79 -21,63 39,126 101,147 71,23 148,16 221,24 74,9 154,42 182,111 39,97 -42,198 -122,265 -159,133 -341,238 -535,309 -70,26 -143,48 -199,97 -57,49 -90,134 -56,200 33,67 121,89 193,75 73,-14 139,-53 208,-79 130,-49 298,-40 381,72 55,74 60,177 32,265 -27,88 -84,164 -143,234 -209,244 -475,441 -777,546 -302,104 -581,133 -881,23z"/>
    <path fill="#2A3B41" d="M14277 18971c0,0 -3,3 -9,9 -7,6 -17,15 -28,25 -25,22 -62,54 -108,97 -92,86 -221,214 -361,390 -71,88 -144,187 -220,295 -77,109 -158,225 -238,350 -81,125 -162,260 -234,405 -36,72 -69,148 -102,225 -33,77 -67,155 -100,235 -135,317 -253,624 -338,910 -85,287 -135,552 -158,777 -22,225 -18,408 -8,534 5,63 9,112 14,145 2,16 3,29 4,38 1,8 1,13 1,13 0,0 -1,-4 -3,-13 -1,-9 -3,-21 -6,-37 -5,-33 -11,-82 -17,-145 -11,-126 -18,-310 3,-536 21,-226 70,-493 155,-780 84,-288 202,-596 337,-913 33,-80 67,-158 100,-235 33,-77 66,-153 103,-226 73,-146 154,-280 235,-406 81,-125 163,-241 240,-349 77,-108 151,-207 222,-294 142,-176 273,-304 367,-388 46,-42 84,-74 109,-95 13,-10 22,-17 30,-23 6,-6 10,-8 10,-8z"/>
    <path fill="#2A3B41" d="M13069 20533c-1,0 -5,-14 -9,-40 -5,-26 -11,-64 -18,-112 -13,-94 -27,-225 -42,-369 -15,-144 -31,-274 -46,-368 -7,-47 -13,-85 -18,-111 -5,-26 -7,-41 -5,-41 1,0 5,14 12,40 6,25 14,63 23,110 18,93 36,224 51,368 14,143 27,271 37,370 5,44 9,82 12,112 3,26 4,41 3,41z"/>
    <path fill="#2A3B41" d="M14286 20306c0,1 -18,3 -49,6 -31,2 -76,6 -132,13 -111,12 -265,34 -433,65 -168,32 -319,68 -427,96 -55,14 -98,27 -129,35 -30,9 -47,13 -47,12 0,-1 16,-7 45,-18 30,-11 73,-25 127,-41 108,-31 259,-69 428,-101 169,-32 323,-52 435,-61 56,-5 101,-7 133,-7 31,-1 49,0 49,1z"/>
    <path fill="#2A3B41" d="M12539 21885c-1,1 -4,-5 -8,-15 -6,-11 -13,-26 -21,-44 -18,-38 -43,-94 -72,-164 -59,-139 -134,-334 -214,-551 -80,-216 -153,-412 -208,-552 -28,-68 -50,-124 -67,-166 -7,-18 -13,-33 -18,-45 -4,-11 -5,-17 -5,-17 1,0 4,5 9,15 5,12 12,26 20,44 18,38 43,94 72,164 59,140 134,335 214,551 80,217 153,412 208,553 28,68 50,124 67,166 7,18 13,33 18,45 4,10 5,16 5,16z"/>
    <path fill="#2A3B41" d="M14156 21364c0,1 -6,3 -16,7 -13,4 -28,9 -47,15 -44,15 -102,34 -173,57 -147,47 -348,115 -570,190 -222,75 -424,141 -571,186 -74,22 -134,39 -175,50 -19,5 -35,10 -48,13 -11,3 -17,4 -17,3 0,0 5,-3 16,-6 13,-5 28,-10 47,-16 43,-14 102,-33 173,-56 146,-48 347,-115 570,-191 222,-75 424,-141 571,-185 74,-23 133,-40 175,-51 19,-5 35,-9 48,-13 11,-2 17,-3 17,-3z"/>
    <path fill="#3068E3" d="M13158 15138l116 354c5,15 -3,30 -18,35l-162 58c-12,5 -28,-2 -33,-17l-116 -354c-126,-5 -242,-88 -286,-222 -56,-171 32,-358 196,-417 164,-59 343,33 399,204 44,134 1,274 -96,359zm-950 -1230c-70,-216 40,-451 246,-524 206,-74 431,41 501,257l70 213 -747 267 -70 -213zm1288 -223l-163 58 -70 -213c-128,-393 -539,-603 -915,-468 -375,134 -576,563 -448,956l70 213 -163 58c-128,46 -197,193 -153,326l454 1386c44,135 185,207 312,162l1689 -604c130,-47 199,-194 154,-329l-453 -1386c-44,-133 -185,-205 -314,-159z"/>
    <path fill="#2A3B41" d="M13326 13740c1,4 -302,118 -679,254 -376,136 -682,243 -684,238 -2,-4 302,-118 679,-254 376,-136 682,-243 684,-238z"/>
    <path fill="#2A3B41" d="M13685 13798c0,0 1,3 3,8 3,7 6,15 10,25 8,23 19,55 33,96 29,85 71,205 122,354 51,150 111,328 178,525 33,100 69,203 104,311 16,55 29,114 24,174 -3,30 -11,60 -26,88 -15,27 -36,51 -60,70 -49,39 -105,62 -161,82 -55,20 -109,40 -163,59 -107,38 -210,75 -308,110 -197,70 -374,133 -523,186 -148,53 -268,95 -353,125 -41,14 -73,25 -96,33 -10,3 -19,6 -25,8 -6,1 -9,2 -9,2 0,0 3,-2 8,-4 7,-2 15,-6 25,-10 23,-8 54,-20 95,-35 84,-31 204,-75 351,-129 149,-55 325,-119 522,-190 98,-35 201,-73 308,-111 53,-20 108,-39 163,-59 54,-20 110,-43 156,-80 23,-18 42,-40 55,-65 14,-25 22,-53 24,-81 6,-57 -7,-114 -23,-168 -34,-108 -70,-212 -102,-311 -66,-198 -125,-376 -175,-526 -49,-150 -89,-271 -117,-356 -13,-41 -23,-74 -31,-97 -3,-10 -5,-19 -7,-25 -2,-6 -3,-9 -2,-9z"/>
    <path fill="#2A3B41" d="M12793 13361c0,2 -16,-8 -47,-21 -32,-12 -79,-25 -139,-27 -59,-3 -131,7 -204,38 -71,31 -142,87 -193,162 -52,75 -74,162 -74,240 -1,79 16,150 32,207 16,58 34,104 45,136 11,32 17,49 16,50 -1,0 -9,-17 -22,-48 -13,-31 -32,-76 -50,-134 -18,-58 -36,-129 -37,-211 -1,-81 23,-172 76,-249 53,-78 127,-135 201,-167 75,-32 150,-40 211,-36 61,3 109,19 140,33 15,8 27,14 34,19 8,5 12,8 11,8z"/>
    <path fill="#2A3B41" d="M12808 14600c0,0 5,-3 16,-8 11,-5 27,-11 49,-17 21,-7 49,-12 82,-14 33,-2 71,2 111,16 81,29 155,112 192,221 18,55 19,120 1,182 -18,62 -53,121 -103,171l2 -8c42,115 88,241 136,371l2 8 -8 3c-22,8 -47,16 -72,24 -53,18 -106,36 -157,53l-8 2 -3 -7c-43,-132 -91,-255 -125,-374l7 6c-65,-5 -123,-32 -170,-67 -46,-36 -82,-80 -106,-127 -24,-47 -36,-97 -34,-143 2,-46 12,-87 27,-122 29,-71 73,-115 106,-139 33,-25 55,-31 55,-31 1,2 -20,9 -52,35 -31,25 -73,69 -101,138 -27,68 -39,165 10,256 24,45 59,87 104,122 45,33 101,59 161,63l6 0 1 5c35,117 83,241 127,373l-11 -6c52,-17 105,-35 158,-53 25,-8 49,-16 72,-24l-5 11c-47,-131 -93,-257 -135,-372l-1 -5 4 -3c47,-47 81,-105 100,-164 17,-60 16,-121 -1,-174 -34,-106 -105,-187 -182,-216 -39,-14 -76,-19 -108,-18 -32,1 -59,6 -81,12 -43,11 -66,22 -66,20z"/>
    <path fill="#AFCDFB" d="M11829 23740l-3161 -14c-381,-2 -688,-312 -686,-692l34 -7927c1,-380 311,-687 691,-686l3162 15c381,2 687,311 686,692l-34 7927c-1,380 -311,687 -692,685z"/>
    <path fill="#FEFEFE" d="M11865 14710l-613 -3c-82,-1 -149,69 -150,155l0 111c-1,86 -68,155 -150,155l-1195 -6c-82,0 -148,-70 -148,-156l1 -111c0,-86 -66,-156 -149,-157l-215 -1 -537 -2c-266,-1 -483,214 -484,480l-33 7738c-1,266 214,483 480,484l3156 15c266,1 483,-214 484,-481l33 -7737c1,-266 -214,-483 -480,-484z"/>
    <path fill="#3068E3" d="M11440 22379l-2346 -10c-25,-1 -44,-27 -44,-60l3 -613c0,-33 19,-59 44,-59l2346 11c25,0 44,26 44,59l-3 614c0,32 -20,58 -44,58z"/>
    <polygon fill="#E9515B" points="9560,17133 8746,17129 8747,16980 9561,16983 "/>
    <polygon fill="#3068E3" points="9560,17133 8746,17129 8747,16980 9561,16983 "/>
    <path fill="#E8EAE9" d="M11949 17900c-1,-1 6,0 18,-4 11,-5 29,-18 31,-43 0,-50 0,-124 -1,-218 0,-47 0,-100 0,-158 0,-14 0,-29 0,-44 1,-15 1,-30 -8,-41 -9,-12 -23,-20 -38,-20 -16,0 -33,0 -50,0 -134,0 -287,0 -457,-1 -678,-2 -1614,-6 -2648,-9 -13,-1 -26,6 -34,17 -9,11 -9,25 -9,42 0,32 0,64 0,96 0,63 -1,127 -1,190 0,31 0,63 0,94 0,15 -2,33 1,44 3,13 13,24 25,29 6,3 12,3 19,3l23 0 47 1c30,0 61,0 92,0 243,1 478,3 703,4 447,3 851,5 1190,7 338,3 612,5 802,6 95,2 168,2 219,3 24,0 43,1 56,1 13,0 20,1 20,1 0,0 -7,1 -20,1 -13,0 -32,0 -56,0 -51,0 -124,1 -219,1 -190,0 -464,-1 -802,-1 -339,-1 -743,-3 -1191,-4 -224,-1 -459,-2 -703,-3 -30,0 -61,0 -91,0l-47 0 -23 0c-8,0 -17,-1 -26,-5 -16,-7 -29,-22 -34,-39 -2,-9 -2,-18 -2,-26l0 -23c0,-31 1,-63 1,-94 0,-63 0,-127 0,-190 1,-32 1,-64 1,-96 0,-9 -1,-16 1,-26 1,-9 5,-18 10,-25 11,-16 30,-25 49,-25 1033,6 1969,11 2647,15 170,1 323,2 458,3 16,0 33,0 49,0 18,1 35,10 44,24 11,13 11,32 11,46 -1,15 -1,30 -1,44 0,58 -1,111 -1,158 -1,94 -2,168 -3,218 -3,27 -22,40 -33,44 -13,5 -19,3 -19,3z"/>
    <polygon fill="#E9515B" points="10454,17701 8965,17694 8965,17554 10455,17561 "/>
    <path fill="#8FB5EF" d="M10454 17701l-434 -2c24,-38 53,-76 69,-96 13,-16 21,-31 24,-43l342 1 -1 140zm-538 -3l-145 0c-14,-61 -40,-104 -58,-113 -4,-2 -9,-3 -13,-3 -20,0 -37,25 -25,48 8,16 13,42 18,67l-728 -3 0 -140 1076 5c-42,41 -99,107 -125,139z"/>
    <polygon fill="#E9515B" points="9555,18496 8741,18492 8741,18343 9555,18347 "/>
    <path fill="#8FB5EF" d="M9080 18494l-339 -2 0 -149 494 2c-55,52 -108,103 -155,149z"/>
    <path fill="#E8EAE9" d="M11928 19263c0,0 6,0 18,-3 12,-4 30,-14 41,-36 5,-11 6,-25 5,-40 0,-16 0,-32 0,-51 0,-36 0,-78 0,-125 0,-47 0,-100 0,-157 0,-15 0,-29 0,-44 0,-15 -2,-29 -10,-42 -7,-12 -20,-22 -34,-27 -14,-4 -31,-2 -48,-2 -134,-1 -287,-1 -456,-1 -675,-3 -1608,-6 -2638,-10 -29,-1 -55,22 -58,51 -1,30 0,63 -1,95 0,63 0,126 -1,189 0,32 0,63 0,94 1,15 -2,32 2,44 4,13 12,25 23,33 12,7 24,10 39,10l47 0c30,0 61,0 91,0 243,2 477,3 701,4 446,3 848,5 1186,7 337,3 610,5 799,7 94,1 168,2 218,2 24,1 43,1 56,1 13,1 20,1 20,1 0,0 -7,1 -20,1 -13,0 -32,0 -56,0 -50,1 -124,1 -218,1 -189,0 -462,-1 -799,-1 -338,-1 -740,-2 -1187,-4 -223,-1 -457,-2 -700,-2 -30,-1 -61,-1 -92,-1l-46 0c-15,1 -34,-3 -48,-13 -14,-10 -25,-25 -30,-42 -4,-17 -2,-33 -2,-48 0,-31 0,-63 0,-94 0,-63 1,-126 1,-189 0,-33 0,-63 1,-97 3,-37 37,-67 74,-66 1030,6 1963,11 2638,15 169,1 322,2 456,3 17,1 33,-1 51,4 16,5 30,16 39,30 9,14 11,32 10,47 0,15 0,29 -1,44 0,57 -1,110 -1,157 0,47 -1,89 -1,125 0,19 -1,35 -1,51 0,15 0,30 -6,41 -12,24 -31,33 -43,36 -13,3 -19,2 -19,2z"/>
    <polygon fill="#E9515B" points="9549,19918 8735,19914 8735,19765 9549,19768 "/>
    <polygon fill="#3068E3" points="9549,19918 8735,19914 8735,19765 9549,19768 "/>
    <path fill="#E8EAE9" d="M11922 20685c0,-1 6,0 18,-4 12,-3 30,-13 41,-35 5,-12 5,-25 5,-41 0,-15 0,-32 0,-50 0,-36 0,-78 0,-125 0,-48 0,-100 0,-157 0,-15 0,-30 0,-45 0,-15 -2,-29 -10,-41 -7,-13 -20,-23 -34,-27 -14,-4 -31,-2 -48,-3 -134,0 -287,0 -456,-1 -675,-2 -1608,-6 -2638,-9 -29,-1 -55,22 -58,51 -1,30 0,63 -1,94 0,64 0,127 -1,190 0,31 0,63 0,94 1,15 -2,31 2,44 4,13 12,25 23,32 12,8 24,11 39,10l46 1c31,0 62,0 92,0 243,1 477,3 701,4 446,3 848,5 1186,7 337,3 610,5 799,6 94,2 168,2 218,3 24,0 43,1 56,1 13,0 20,1 20,1 0,0 -7,1 -20,1 -13,0 -32,0 -56,0 -50,0 -124,1 -218,1 -189,0 -462,-1 -799,-1 -338,-1 -740,-3 -1187,-4 -223,-1 -457,-2 -700,-3 -30,0 -61,0 -92,0l-46 0c-15,1 -34,-3 -48,-13 -14,-10 -25,-25 -30,-42 -4,-18 -2,-33 -2,-48 0,-32 0,-63 0,-94 0,-63 0,-126 1,-190 0,-32 -1,-63 1,-96 3,-37 37,-67 74,-66 1030,6 1963,11 2638,15 169,1 322,2 456,3 17,1 33,-2 51,4 16,5 30,16 39,30 9,14 11,32 10,47 0,15 0,29 -1,44 0,57 -1,109 -1,157 0,47 -1,89 -1,125 0,18 -1,35 -1,50 0,16 0,31 -6,42 -12,23 -31,33 -43,36 -13,3 -19,2 -19,2z"/>
    <polygon fill="#E9515B" points="10448,19064 8959,19057 8960,18917 10449,18924 "/>
    <path fill="#8FB5EF" d="M10448 19064l-1256 -6c38,-38 83,-85 132,-139l1125 5 -1 140z"/>
    <path fill="#E9515B" d="M9095 20427c0,38 -29,69 -65,69 -36,0 -65,-32 -65,-70 0,-38 29,-69 65,-69 36,0 65,31 65,70z"/>
    <path fill="#E9515B" d="M9297 20427c0,39 -30,70 -66,70 -36,-1 -65,-32 -64,-70 0,-38 29,-69 65,-69 36,0 65,31 65,69z"/>
    <path fill="#E9515B" d="M9498 20428c0,39 -29,70 -65,70 -36,-1 -65,-32 -65,-70 0,-39 30,-69 66,-69 36,0 65,31 64,69z"/>
    <path fill="#E9515B" d="M9700 20429c0,39 -29,70 -65,69 -36,0 -65,-31 -65,-69 0,-39 29,-70 65,-69 36,0 65,31 65,69z"/>
    <path fill="#E9515B" d="M9902 20430c0,39 -29,70 -65,69 -36,0 -65,-31 -65,-69 0,-39 29,-70 65,-69 36,0 65,31 65,69z"/>
    <path fill="#E9515B" d="M10104 20431c0,39 -30,70 -66,69 -36,0 -65,-31 -65,-69 1,-39 30,-70 66,-70 36,1 65,32 65,70z"/>
    <path fill="#E9515B" d="M10305 20432c0,39 -29,69 -65,69 -36,0 -65,-31 -65,-69 0,-39 30,-70 66,-70 36,1 65,32 64,70z"/>
    <path fill="#E9515B" d="M10507 20433c0,38 -29,69 -65,69 -36,0 -65,-31 -65,-70 0,-38 29,-69 65,-69 36,1 65,32 65,70z"/>
    <path fill="#E9515B" d="M10709 20434c0,38 -30,69 -65,69 -36,0 -65,-31 -65,-70 0,-38 29,-69 65,-69 36,0 65,32 65,70z"/>
    <path fill="#8FB5EF" d="M9030 20496c0,0 0,0 0,0 -36,0 -65,-31 -65,-70 0,0 0,0 0,0 0,-38 29,-69 65,-69 0,0 0,0 0,0 36,0 65,31 65,69 0,0 0,0 0,1 0,38 -29,69 -65,69z"/>
    <path fill="#8FB5EF" d="M9232 20497c0,0 -1,0 -1,0 -35,-1 -64,-32 -64,-70 0,0 0,0 0,0 0,-38 29,-69 65,-69 0,0 0,0 0,0 36,0 65,31 65,69 0,0 0,0 0,0 0,39 -30,70 -65,70z"/>
    <path fill="#8FB5EF" d="M9433 20498c0,0 0,0 0,0 -36,-1 -65,-32 -65,-70 0,0 0,0 0,0 0,-38 30,-69 65,-69 0,0 1,0 1,0 35,0 64,31 64,69 0,0 0,0 0,0 0,39 -29,70 -65,70z"/>
    <path fill="#8FB5EF" d="M9635 20498c0,0 0,0 0,0 -36,0 -65,-31 -65,-69 0,0 0,0 0,0 0,-38 29,-69 65,-69 0,0 0,0 0,0 36,0 65,31 65,69 0,0 0,0 0,0 0,39 -29,69 -65,69z"/>
    <path fill="#8FB5EF" d="M9837 20499c0,0 0,0 0,0 -36,0 -65,-31 -65,-69 0,0 0,0 0,0 0,-39 29,-69 65,-69 0,0 0,0 0,0 36,0 65,31 65,69 0,0 0,0 0,0 0,39 -29,69 -65,69z"/>
    <path fill="#8FB5EF" stroke="#8FB5EF" stroke-width="9.36249" d="M10039 20500c-1,0 -1,0 -1,0 -36,0 -64,-31 -65,-69 1,0 0,0 0,0 1,-39 30,-70 66,-70 0,0 0,0 0,0 36,1 65,32 65,70 0,0 0,0 0,0 0,38 -30,69 -65,69z"/>
    <path fill="#8FB5EF" d="M10240 20501c0,0 0,0 0,0 -36,0 -65,-31 -65,-69 0,0 0,0 0,0 0,-39 29,-70 65,-70 0,0 1,0 1,0 35,1 64,32 64,70 0,0 0,0 0,0 0,38 -29,69 -65,69z"/>
    <path fill="#8FB5EF" stroke="#8FB5EF" stroke-width="9.36249" d="M10442 20502c0,0 0,0 0,0 -36,0 -65,-31 -65,-69 0,0 0,0 0,-1 0,-38 29,-69 65,-69 0,0 0,0 0,0 36,1 65,31 65,70 0,0 0,0 0,0 0,38 -29,69 -65,69z"/>
    <path fill="#8FB5EF" d="M10644 20503c0,0 0,0 0,0 -36,0 -65,-31 -65,-69 0,0 0,0 0,-1 0,-38 29,-69 65,-69 0,0 0,0 0,0 36,0 65,31 65,70 0,0 0,0 0,0 0,38 -29,69 -65,69z"/>
    <path fill="#E9515B" d="M10422 15864c43,-18 73,-62 74,-114 0,-67 -52,-123 -115,-123 -64,0 -115,54 -116,122 0,53 31,97 74,115 -178,27 -169,219 -169,219l418 2c0,0 10,-195 -166,-221z"/>
    <path fill="#3068E3" d="M10588 16085l-418 -2c0,0 -1,-1 -1,-4 0,-27 7,-191 170,-215l0 0c-43,-18 -74,-62 -74,-114 0,0 0,-1 0,-1 1,-67 52,-122 115,-122 1,0 1,0 1,0 63,0 115,55 115,123 0,0 0,0 0,0 -1,52 -31,96 -74,114l0 0c159,24 167,185 167,216 0,3 -1,5 -1,5z"/>
    <polygon fill="#E9515B" points="11102,16390 9608,16383 9609,16204 11103,16211 "/>
    <polygon fill="#8FB5EF" points="11102,16390 9608,16383 9609,16204 11103,16211 "/>
    <path fill="#8FB5EF" stroke="#8FB5EF" stroke-width="9.36249" d="M5611 17136c0,0 -5,0 -14,1 -11,1 -25,2 -43,3 -19,1 -43,5 -70,10 -13,2 -28,4 -44,8 -15,4 -32,9 -49,14 -68,21 -150,55 -233,115 -83,60 -166,145 -230,256 -34,55 -58,118 -81,184 -17,67 -33,139 -35,215 -3,37 1,75 2,114 2,20 6,39 8,59 3,19 6,39 11,58 16,79 48,156 89,230 81,148 217,276 385,350 85,37 178,57 272,61 95,6 192,-9 284,-41l28 -10 4 -1 3 2c136,69 270,137 399,202l-12 10c-42,-132 -84,-260 -123,-383l-2 -5 4 -4c100,-100 171,-223 209,-348 39,-126 46,-254 31,-371 -15,-118 -54,-225 -105,-315 -51,-90 -115,-163 -180,-220 -66,-57 -135,-96 -196,-125 -63,-26 -120,-43 -166,-52 -23,-4 -44,-8 -62,-11 -18,-1 -33,-2 -46,-3 -12,-1 -21,-2 -28,-2 -6,-1 -10,-1 -10,-1 0,-1 4,-1 10,-1 7,1 16,1 28,1 13,1 28,1 46,2 18,3 39,6 63,9 47,9 104,25 168,51 62,29 132,67 199,124 67,57 132,131 184,222 53,91 93,200 109,319 16,119 9,249 -30,377 -39,128 -110,253 -213,356l2 -8c40,123 82,251 124,383l7 20 -18 -10c-130,-65 -263,-133 -400,-202l7 0 -28 11c-94,32 -194,48 -290,41 -97,-4 -192,-24 -278,-62 -172,-76 -311,-207 -393,-358 -41,-76 -73,-154 -89,-235 -6,-19 -9,-39 -12,-59 -2,-20 -6,-40 -7,-59 -2,-40 -5,-79 -2,-117 2,-77 18,-150 37,-218 23,-67 48,-131 83,-186 66,-112 150,-198 234,-257 84,-60 168,-94 237,-115 18,-4 34,-9 50,-13 15,-4 31,-5 44,-7 28,-5 51,-8 70,-8 19,-1 33,-1 44,-2 9,0 14,0 14,1z"/>
    <path fill="#3068E3" d="M5792 17875l-59 0 -127 -178 0 -117c0,0 -91,-6 -80,147 11,153 -1,114 -1,114 0,0 -192,1 -208,18 -12,12 -17,203 -19,306 -1,52 31,101 80,113 6,2 13,3 20,3 48,0 293,-39 293,-39l101 0 0 -367z"/>
    <polygon fill="#3068E3" points="5959,17843 5923,18243 5823,18243 5823,17851 "/>
    <path fill="#B5453C" d="M7153 25989l0 -271 -486 -3 -4 409 30 2c134,9 682,21 771,-6 100,-31 -312,-131 -311,-131z"/>
    <path fill="#2A3B41" d="M7476 26094c0,5 -182,8 -406,8 -224,0 -405,-3 -405,-8 0,-4 181,-8 405,-8 224,0 406,4 406,8z"/>
    <path fill="#2A3B41" d="M7161 26044c-4,-2 -1,-16 10,-31 10,-14 23,-21 26,-18 3,3 -3,15 -13,28 -9,13 -19,23 -23,21z"/>
    <path fill="#2A3B41" d="M7192 26062c-4,-2 -2,-18 8,-35 9,-17 22,-27 25,-24 4,3 -2,17 -11,32 -9,16 -18,28 -22,27z"/>
    <path fill="#2A3B41" d="M6811 26093c-2,1 -9,-6 -20,-18 -10,-12 -24,-28 -42,-42 -18,-14 -38,-22 -53,-23 -14,-2 -24,0 -25,-2 -1,-2 8,-9 26,-10 17,-1 41,5 62,21 20,16 33,36 42,49 8,14 12,24 10,25z"/>
    <path fill="#2A3B41" d="M7162 25993c3,4 -5,13 -19,18 -14,6 -27,4 -27,-1 -1,-4 9,-10 21,-14 12,-5 23,-7 25,-3z"/>
    <path fill="#2A3B41" d="M7155 25967c0,4 -13,8 -29,9 -16,0 -29,-4 -29,-8 0,-5 13,-9 29,-9 15,0 28,3 29,8z"/>
    <path fill="#B5453C" d="M8348 25989l0 -271 -486 -3 -4 405 30 2c134,9 682,25 771,-2 100,-31 -311,-131 -311,-131z"/>
    <path fill="#2A3B41" d="M8671 26095c0,4 -182,8 -406,8 -224,0 -405,-4 -405,-8 0,-5 181,-9 405,-9 224,0 406,4 406,9z"/>
    <path fill="#2A3B41" d="M8356 26044c-4,-2 0,-16 10,-31 10,-14 23,-21 26,-18 3,3 -3,15 -13,28 -9,13 -19,23 -23,21z"/>
    <path fill="#2A3B41" d="M8387 26062c-4,-2 -2,-18 8,-35 9,-17 22,-27 25,-24 4,3 -2,17 -11,32 -9,16 -18,28 -22,27z"/>
    <path fill="#2A3B41" d="M8006 26093c-2,1 -9,-6 -20,-18 -10,-12 -24,-28 -42,-42 -18,-14 -38,-22 -53,-23 -14,-2 -24,0 -25,-2 -1,-2 8,-9 26,-10 17,-1 41,5 62,21 20,16 34,36 42,49 8,14 12,24 10,25z"/>
    <path fill="#2A3B41" d="M8358 25993c2,4 -6,13 -20,18 -14,6 -26,4 -27,-1 -1,-4 9,-10 21,-14 12,-5 23,-7 26,-3z"/>
    <path fill="#2A3B41" d="M8350 25967c0,4 -13,8 -29,9 -16,0 -29,-4 -29,-8 0,-5 13,-9 29,-9 16,0 29,3 29,8z"/>
    <path fill="#FFB27D" d="M10135 17951c-12,-13 -43,-7 -43,-7 0,0 5,-37 -1,-54 -5,-18 -45,-15 -45,-15 0,0 -3,-17 1,-45 1,-7 -3,-12 -10,-16 -18,-11 -59,-11 -59,-11 -25,-17 74,-155 111,-200 36,-43 30,-79 -3,-78 -22,0 -137,132 -173,177 -35,45 -129,169 -133,70 -3,-99 -43,-174 -67,-187 -25,-13 -52,17 -38,45 11,22 18,65 22,97 3,27 2,54 -4,80 -16,74 -34,123 -42,143l-3 -1c0,0 -691,662 -741,710 -44,42 -942,-51 -1122,-70 -49,-5 -122,-15 -185,-12 -78,3 -92,14 -170,15 -239,3 -439,27 -587,52 -179,30 -326,158 -382,331 -181,566 -592,1908 -665,2661 -58,109 -122,235 -148,307 -51,138 -39,143 -22,146 21,4 43,-45 63,-95 24,-59 45,-118 56,-85 19,60 -100,296 -52,303 63,9 114,-252 120,-274 5,-21 37,-14 31,6 -9,27 -98,323 -36,332 34,6 38,-57 38,-57 0,0 63,-283 92,-277 29,5 -2,173 -17,228 -14,55 6,84 36,70 20,-9 69,-178 82,-234 13,-55 46,-207 91,-119 45,89 112,140 140,141 28,1 40,-37 16,-57 -20,-15 -44,-51 -61,-79 -15,-22 -25,-47 -31,-74 -22,-101 -22,-160 -22,-160l-5 -32c71,-352 275,-1382 569,-2040l121 249 52 184 -322 796 1374 -18 -205 -790 249 -823c270,6 962,16 1078,-36 145,-65 895,-1011 895,-1011l0 0c51,-40 102,-83 140,-121 0,0 45,-36 17,-65z"/>
    <path fill="white" d="M6527 20229c40,-136 245,-809 245,-809 0,0 100,548 74,614 -31,77 -87,164 -87,164 -232,354 -201,530 -201,530l1403 -42c4,-197 -113,-653 -137,-726 -24,-73 56,-311 56,-311 0,0 159,-161 153,-244 -12,-167 -28,-221 -28,-221l854 31 -26 -579 -1228 -123c-43,121 -429,62 -429,62 -418,13 -443,90 -617,225 -174,135 -461,1292 -461,1292l429 137z"/>
    <path fill="#2A3B41" d="M7357 20092c0,2 -28,4 -74,4 -45,-1 -109,-4 -178,-10 -69,-8 -132,-17 -177,-26 -45,-9 -72,-16 -71,-19 0,-2 28,2 73,7 45,6 108,14 177,21 69,7 131,12 177,15 45,3 73,5 73,8z"/>
    <path fill="#2A3B41" d="M7453 19972c1,2 -28,13 -76,27 -49,13 -116,27 -192,36 -76,9 -145,11 -195,10 -50,-2 -81,-6 -81,-8 0,-2 31,-3 81,-4 49,-2 118,-5 193,-14 75,-9 142,-22 191,-32 49,-10 79,-17 79,-15z"/>
    <path fill="#2A3B41" d="M7925 19440c3,0 -1,28 -9,72 -8,43 -21,104 -37,169 -17,66 -33,126 -46,168 -13,43 -22,69 -25,68 -2,0 4,-27 14,-71 12,-49 25,-106 41,-168 15,-63 29,-120 41,-169 12,-43 19,-70 21,-69z"/>
    <path fill="#2A3B41" d="M6542 20148c-1,4 -98,-18 -216,-50 -119,-33 -214,-62 -212,-67 1,-4 98,19 216,51 118,32 213,62 212,66z"/>
    <path fill="#2A3B41" d="M8021 19176c0,1 -13,3 -37,0 -23,-2 -57,-8 -96,-23 -40,-15 -84,-39 -126,-77 -42,-37 -79,-88 -103,-148 -24,-60 -32,-123 -29,-178 4,-56 19,-106 44,-142 24,-35 57,-53 80,-58 11,-4 21,-4 27,-4 6,0 9,1 9,1 0,2 -13,1 -34,9 -21,7 -51,25 -73,59 -43,68 -55,191 -9,307 23,58 58,107 98,143 40,37 82,62 120,77 76,32 129,31 129,34z"/>
    <path fill="#2A3B41" d="M8759 19204c-5,0 -8,-131 -8,-292 0,-161 4,-292 9,-292 4,0 8,131 7,292 0,161 -4,292 -8,292z"/>
    <path fill="#FFB27D" d="M7597 18548c4,-70 11,-150 11,-150 0,0 175,-20 185,-200 11,-180 0,-597 0,-597l-318 -162 -350 277 53 902 322 20c51,4 95,-37 97,-90z"/>
    <path fill="#F29E6C" d="M7629 18055c0,0 0,4 -3,8 -3,4 -10,9 -20,9 -20,-1 -40,-24 -47,-51 -4,-14 -4,-28 -1,-40 2,-12 9,-24 19,-27 5,-2 10,-2 13,0 4,2 6,5 8,7 2,6 0,9 0,9 -1,0 -1,-3 -4,-7 -2,-3 -8,-6 -15,-3 -6,3 -11,12 -13,23 -2,11 -1,23 2,36 6,24 23,44 38,46 8,1 14,-2 17,-5 4,-3 5,-5 6,-5z"/>
    <path fill="#2A3B41" d="M7902 17504c-24,-83 -113,-124 -193,-147 -123,-35 -255,-50 -375,-6 -119,44 -263,121 -263,253 -71,-5 -111,57 -139,133 -17,45 -28,96 -30,146l-1 -1c-9,173 -58,412 -170,539 -62,71 -151,120 -187,208 -31,76 -15,167 -45,244 -26,68 -84,116 -125,176 -91,129 -97,311 -31,455 67,144 199,250 345,298 146,48 306,43 455,4 109,-28 216,-76 304,-151 88,-75 155,-179 175,-295 22,-129 -14,-260 -41,-389 -84,-406 -60,-427 46,-804 3,-7 4,-14 6,-21 1,-5 3,-9 4,-14l0 -1c3,-14 5,-29 5,-45 -31,12 -68,4 -91,-19 -24,-24 -33,-63 -22,-95 12,-37 46,-62 82,-77 35,-15 72,-22 107,-39 73,-34 124,-107 158,-182 24,-53 42,-114 26,-170z"/>
    <path fill="#E9515B" d="M7641 18063c1,-1 7,11 17,31 9,20 22,48 36,81l3 6 -7 1c-11,0 -21,1 -32,2 -22,2 -41,4 -62,4 -4,0 -7,-4 -9,-7 -1,-3 0,-6 0,-9 1,-5 2,-8 3,-13l6 -22c7,-27 12,-44 13,-44 1,0 -1,18 -7,45l-4 23c-2,8 -4,19 0,18 15,0 38,-3 59,-5 11,0 21,-1 32,-2l-4 7c-14,-33 -25,-62 -33,-82 -8,-21 -12,-34 -11,-34z"/>
    <path fill="#1C468A" d="M6558 20728l1403 -42 611 2385 -113 2735 -743 0 92 -2677 -543 -1660 84 4443 -750 11 -79 -4177c-3,-116 -42,-378 -27,-493l65 -525z"/>
    <path fill="#3A5F6B" d="M7452 21502c0,2 -26,1 -68,-4 -43,-5 -101,-14 -164,-26 -64,-13 -121,-28 -162,-39 -41,-12 -66,-21 -65,-23 1,-5 103,20 230,45 126,26 230,43 229,47z"/>
    <path fill="#3A5F6B" d="M8452 25656c0,5 -168,8 -375,8 -208,0 -376,-3 -376,-8 0,-4 168,-8 376,-8 207,0 375,4 375,8z"/>
    <path fill="#3A5F6B" d="M7342 25797c0,4 -163,8 -364,8 -201,0 -365,-4 -365,-8 0,-5 164,-8 365,-8 201,0 364,3 364,8z"/>
    <path fill="#3A5F6B" d="M7246 25785c-5,1 -25,-970 -44,-2168 -20,-1198 -32,-2169 -28,-2169 5,0 24,971 44,2169 20,1197 32,2168 28,2168z"/>
    <path fill="#3A5F6B" d="M8353 25656c-1,0 -1,-4 -1,-13 1,-9 1,-22 1,-38 1,-34 2,-83 4,-145 5,-128 11,-311 19,-536 17,-454 41,-1078 67,-1768 1,-7 1,-13 1,-19l0 2c-166,-666 -316,-1268 -425,-1704 -54,-218 -97,-394 -127,-517 -15,-60 -26,-107 -34,-140 -4,-16 -6,-28 -8,-37 -2,-8 -3,-13 -3,-13 1,0 2,4 4,13 3,8 6,21 10,36 9,33 21,80 37,140 31,122 76,298 132,515 110,436 262,1038 430,1703l1 2 0 1c-1,6 -1,12 -1,18 -28,690 -54,1315 -72,1768 -10,226 -19,408 -24,536 -3,62 -6,111 -8,145 -1,17 -1,29 -2,38 -1,9 -1,13 -1,13z"/>
    <path fill="#3A5F6B" d="M8111 23081c0,5 -73,21 -165,37 -68,12 -127,20 -153,21l0 -6c9,2 14,4 13,5 0,1 -5,1 -14,1l-19 -1 19 -5c25,-8 83,-20 152,-31 91,-16 166,-25 167,-21z"/>
    <path fill="#3A5F6B" d="M8096 23172c0,5 -66,0 -147,-6 -82,-7 -148,-12 -147,-17 0,-4 66,-6 148,0 82,6 147,19 146,23z"/>
    <path fill="#CBCAC7" d="M6551 20779l0 0 1 -4 -1 4zm3 -19c1,-12 4,-32 4,-32l-4 32z"/>
    <path fill="#D84045" d="M6558 20728c229,-12 465,-17 701,-21l-701 21z"/>
    <path fill="#233862" d="M6752 20857c-21,0 -42,-1 -62,-4 -56,-10 -105,-26 -139,-74l1 -4 1 -7c0,-2 0,-5 1,-8l4 -32 701 -21c236,-4 473,-9 702,-21 -355,86 -739,123 -1101,163 -36,4 -72,8 -108,8z"/>
    <polygon fill="#D6D5D4" points="7283,22431 7283,22431 7281,22318 "/>
    <polygon fill="#CBCAC7" points="7281,22318 7281,22318 7266,21480 "/>
    <path fill="#233862" d="M7283 22431l-93 -363c-7,-329 -12,-549 -15,-606 15,3 29,6 45,10 15,3 31,6 46,8l15 838 2 113zm-105 -410l-153 -595 27 5c2,1 4,1 6,2 31,8 71,19 115,29 -1,53 1,255 5,559z"/>
    <path fill="#324E58" d="M7266 21480l0 0c-15,-2 -31,-5 -46,-8 -16,-4 -30,-7 -45,-10 0,-4 0,-7 0,-9l90 16 1 11zm-93 -18c-44,-10 -84,-21 -115,-29 -2,-1 -4,-1 -6,-2l122 21c0,3 -1,6 -1,10z"/>
    <path fill="#324E58" stroke="#233862" stroke-width="9.36249" d="M7190 22068l-12 -47c-4,-304 -6,-506 -5,-559 0,-4 1,-7 1,-10l1 1c0,2 0,5 0,9 3,57 8,277 15,606z"/>
    <path fill="#FEFEFE" fill-rule="nonzero" d="M9792 22043c2,3 3,6 4,9 1,3 3,6 4,9 1,-3 2,-6 3,-9 2,-3 3,-6 5,-9l84 -154c2,-3 3,-4 5,-5 2,-1 4,-1 7,-1l25 0 0 250 -30 0 0 -183c0,-3 0,-6 0,-8 0,-3 1,-6 1,-9l-86 156c-3,5 -7,8 -12,8l-5 0c-5,0 -9,-3 -12,-8l-87 -156c0,3 0,6 1,8 0,3 0,6 0,9l0 183 -30 0 0 -250 25 0c3,0 5,0 7,1 2,1 3,2 5,5l86 154zm403 90l-26 0c-3,0 -6,-1 -8,-2 -2,-2 -3,-4 -4,-6l-23 -60 -112 0 -23 60c-1,2 -3,4 -5,5 -2,2 -4,3 -7,3l-26 0 100 -250 34 0 100 250zm-164 -93l93 0 -39 -101c-2,-6 -5,-14 -7,-24 -2,5 -3,9 -4,13 -1,4 -2,8 -4,11l-39 101zm323 -118c-1,2 -2,3 -3,4 -1,1 -3,2 -5,2 -2,0 -4,-1 -7,-3 -2,-2 -6,-5 -10,-7 -4,-2 -8,-4 -14,-6 -6,-2 -12,-3 -21,-3 -7,0 -14,1 -20,3 -5,2 -10,4 -14,8 -4,3 -7,7 -9,12 -2,5 -3,10 -3,15 0,7 2,13 5,18 4,4 8,8 14,11 6,4 12,7 19,9 7,2 15,5 22,7 8,3 15,6 22,9 7,3 13,7 19,12 6,5 10,11 14,18 3,7 5,16 5,26 0,11 -2,21 -6,31 -3,9 -9,18 -16,25 -7,7 -16,12 -26,17 -11,4 -23,6 -36,6 -16,0 -31,-3 -44,-9 -13,-6 -25,-14 -34,-24l10 -16c1,-1 2,-2 3,-3 2,-1 3,-2 5,-2 2,0 5,2 8,4 3,3 7,6 12,9 4,3 10,6 17,9 7,2 15,3 24,3 8,0 15,-1 22,-3 6,-2 11,-5 16,-9 4,-4 7,-9 10,-15 2,-5 3,-11 3,-18 0,-8 -2,-14 -5,-19 -3,-5 -8,-9 -14,-12 -5,-3 -11,-6 -19,-8 -7,-2 -14,-5 -21,-7 -8,-2 -15,-5 -22,-8 -8,-3 -14,-8 -20,-13 -5,-5 -10,-11 -13,-18 -3,-8 -5,-17 -5,-28 0,-9 2,-17 5,-26 3,-8 8,-15 15,-22 6,-6 14,-11 24,-15 10,-4 21,-6 33,-6 14,0 27,3 38,7 12,4 22,11 30,19l-8 16zm154 184c10,0 19,-2 27,-5 9,-4 15,-9 21,-15 6,-6 10,-14 13,-22 3,-9 4,-19 4,-29l0 -152 34 0 0 152c0,14 -2,28 -7,40 -4,12 -11,23 -20,32 -8,9 -18,16 -31,21 -12,5 -26,8 -41,8 -16,0 -29,-3 -42,-8 -12,-5 -22,-12 -31,-21 -9,-9 -15,-20 -20,-32 -4,-12 -7,-26 -7,-40l0 -152 34 0 0 152c0,10 1,20 4,29 3,8 8,16 13,22 6,6 13,11 21,15 8,3 17,5 28,5zm194 -114l13 0c4,0 8,0 10,-1 3,-1 5,-3 8,-6l83 -94c2,-3 5,-5 7,-6 3,-1 6,-2 9,-2l29 0 -95 108c-2,2 -5,5 -7,7 -2,1 -4,3 -7,4 3,1 6,3 9,5 2,2 5,4 7,8l100 118 -30 0c-2,0 -4,0 -5,-1 -2,0 -3,-1 -4,-1 -1,-1 -2,-1 -3,-2 -1,-1 -2,-2 -3,-3l-86 -99c-1,-2 -3,-3 -4,-4 -1,-1 -2,-2 -4,-2 -1,-1 -3,-2 -5,-2 -1,0 -4,0 -7,0l-15 0 0 114 -34 0 0 -250 34 0 0 109z"/>
   </g>
  </g>
 </g>
</svg>
