<?xml version="1.0" encoding="utf-8"?>
<!-- Generator: Adobe Illustrator 24.0.2, SVG Export Plug-In . SVG Version: 6.00 Build 0)  -->
<svg version="1.1" id="Capa_1" xmlns="http://www.w3.org/2000/svg" xmlns:xlink="http://www.w3.org/1999/xlink" x="0px" y="0px"
	 viewBox="0 0 512 512" style="enable-background:new 0 0 512 512;" xml:space="preserve">
<style type="text/css">
	.st0{fill:#ED1212;}
	.st1{fill:#F99393;}
</style>
<g>
	<g>
		<g>
			<path class="st0" d="M204.1,200.7h101.2c5.5,0,10-4.5,10-10s-4.5-10-10-10H204.1c-5.5,0-10,4.5-10,10S198.6,200.7,204.1,200.7z"
				/>
			<path class="st0" d="M311,275.7H204.1c-5.5,0-10,4.5-10,10s4.5,10,10,10H311c5.5,0,10-4.5,10-10S316.6,275.7,311,275.7z"/>
			<path class="st0" d="M311,370.6H204.1c-5.5,0-10,4.5-10,10s4.5,10,10,10H311c5.5,0,10-4.5,10-10S316.6,370.6,311,370.6z"/>
		</g>
		<g>
			<path class="st0" d="M394.1,424.9c-3.4,0-6.7-0.2-10-0.5v56.8c0,6-4.9,10.8-10.8,10.8H46.8c-6,0-10.8-4.9-10.8-10.8V82.1
				c0-6,4.9-10.8,10.8-10.8h62.3V96H70.8c-5.5,0-10,4.5-10,10v351.3c0,5.5,4.5,10,10,10h278.5c5.5,0,10-4.5,10-10v-38.5
				c-7.1-2.6-13.8-5.9-20-9.9v38.4H80.8V116h258.5v140.3c6.2-4,12.9-7.3,20-9.9V106c0-5.5-4.5-10-10-10H311V71.2h62.3
				c6,0,10.8,4.9,10.8,10.8v158.6c3.3-0.3,6.6-0.5,10-0.5s6.7,0.2,10,0.5V82.1c0-17-13.8-30.8-30.8-30.8H263.1
				C262.1,22.8,238.7,0,210,0s-52.1,22.8-53.1,51.2H46.8c-17,0-30.8,13.8-30.8,30.8v399.1c0,17,13.8,30.8,30.8,30.8h326.4
				c17,0,30.8-13.8,30.8-30.8v-56.8C400.8,424.7,397.4,424.9,394.1,424.9L394.1,424.9z M129.1,71.2h38.6c3,0,5.8-1.3,7.7-3.6
				s2.7-5.3,2.1-8.3c-0.4-2-0.6-4.2-0.6-6.3c0-18.2,14.9-33.1,33.1-33.1s33.1,14.8,33.1,33.1c0,2.1-0.2,4.2-0.6,6.3
				c-0.6,2.9,0.2,6,2.1,8.3c1.9,2.3,4.7,3.6,7.7,3.6H291V96H129.1L129.1,71.2z"/>
		</g>
	</g>
	<g>
		<ellipse class="st1" cx="394.1" cy="332.5" rx="101.9" ry="102.3"/>
		<g>
			<path class="st0" d="M412.7,347.2h-18.7c-5.5,0-10-4.5-10-10V306c0-5.5,4.5-10,10-10s10,4.5,10,10v21.2h8.7c5.5,0,10,4.5,10,10
				S418.2,347.2,412.7,347.2z"/>
		</g>
		<g>
			<ellipse class="st1" cx="140" cy="190.8" rx="25.8" ry="25.8"/>
		</g>
		<g>
			
				<ellipse transform="matrix(0.7071 -0.7071 0.7071 0.7071 -228.1417 210.4506)" class="st1" cx="140" cy="380.6" rx="25.8" ry="25.8"/>
		</g>
		<g>
			<ellipse transform="matrix(0.23 -0.9732 0.9732 0.23 -170.3164 356.256)" class="st1" cx="140" cy="285.8" rx="25.8" ry="25.8"/>
		</g>
	</g>
</g>
</svg>
